<?xml version="1.0" encoding="UTF-8"?>
<svg width="14px" height="10px" viewBox="0 0 14 10" version="1.1" xmlns="http://www.w3.org/2000/svg" xmlns:xlink="http://www.w3.org/1999/xlink">
    <!-- Generator: Sketch 63.1 (92452) - https://sketch.com -->
    <title>flecha</title>
    <desc>Created with Sketch.</desc>
    <g id="*Noticias" stroke="none" stroke-width="1" fill="none" fill-rule="evenodd">
        <g id="promociones-abiertos" transform="translate(-1144.000000, -859.000000)" stroke="#EB0029" stroke-width="4">
            <g id="dropdown" transform="translate(1151.000000, 864.500000) scale(1, -1) translate(-1151.000000, -864.500000) translate(1146.000000, 862.000000)">
                <polyline id="Path-7-Copy" points="0 0 5 5 10 0"></polyline>
            </g>
        </g>
    </g>
</svg>